{
	"d": {
		"results": [{
			"__metadata": {
				"id": "https://webidetesting5081015-a79086271.dispatcher.hana.ondemand.com/sap/opu/odata/sap/Z_PLM_PHASE_OUT_SRV_01/PhaseOutManagerValueHelpEntitySet('DHOEHMAN')",
				"uri": "https://webidetesting5081015-a79086271.dispatcher.hana.ondemand.com/sap/opu/odata/sap/Z_PLM_PHASE_OUT_SRV_01/PhaseOutManagerValueHelpEntitySet('DHOEHMAN')",
				"type": "phaseout.PhaseOutManagerValueHelpEntity"
			},
			"UserKey": "DHOEHMAN",
			"UserDisplayName": "  DIRK HÖHMANN"
		}, {
			"__metadata": {
				"id": "https://webidetesting5081015-a79086271.dispatcher.hana.ondemand.com/sap/opu/odata/sap/Z_PLM_PHASE_OUT_SRV_01/PhaseOutManagerValueHelpEntitySet('DMEYENBURG')",
				"uri": "https://webidetesting5081015-a79086271.dispatcher.hana.ondemand.com/sap/opu/odata/sap/Z_PLM_PHASE_OUT_SRV_01/PhaseOutManagerValueHelpEntitySet('DMEYENBURG')",
				"type": "phaseout.PhaseOutManagerValueHelpEntity"
			},
			"UserKey": "DMEYENBURG",
			"UserDisplayName": "DOMINIK MEYENBURG"
		}, {
			"__metadata": {
				"id": "https://webidetesting5081015-a79086271.dispatcher.hana.ondemand.com/sap/opu/odata/sap/Z_PLM_PHASE_OUT_SRV_01/PhaseOutManagerValueHelpEntitySet('EBERINGUIER')",
				"uri": "https://webidetesting5081015-a79086271.dispatcher.hana.ondemand.com/sap/opu/odata/sap/Z_PLM_PHASE_OUT_SRV_01/PhaseOutManagerValueHelpEntitySet('EBERINGUIER')",
				"type": "phaseout.PhaseOutManagerValueHelpEntity"
			},
			"UserKey": "EBERINGUIER",
			"UserDisplayName": "ERIC BERINGUIER"
		}, {
			"__metadata": {
				"id": "https://webidetesting5081015-a79086271.dispatcher.hana.ondemand.com/sap/opu/odata/sap/Z_PLM_PHASE_OUT_SRV_01/PhaseOutManagerValueHelpEntitySet('FHINZ')",
				"uri": "https://webidetesting5081015-a79086271.dispatcher.hana.ondemand.com/sap/opu/odata/sap/Z_PLM_PHASE_OUT_SRV_01/PhaseOutManagerValueHelpEntitySet('FHINZ')",
				"type": "phaseout.PhaseOutManagerValueHelpEntity"
			},
			"UserKey": "FHINZ",
			"UserDisplayName": "FRANK HINZ"
		}, {
			"__metadata": {
				"id": "https://webidetesting5081015-a79086271.dispatcher.hana.ondemand.com/sap/opu/odata/sap/Z_PLM_PHASE_OUT_SRV_01/PhaseOutManagerValueHelpEntitySet('L%C3%96SCHTEST')",
				"uri": "https://webidetesting5081015-a79086271.dispatcher.hana.ondemand.com/sap/opu/odata/sap/Z_PLM_PHASE_OUT_SRV_01/PhaseOutManagerValueHelpEntitySet('L%C3%96SCHTEST')",
				"type": "phaseout.PhaseOutManagerValueHelpEntity"
			},
			"UserKey": "LÖSCHTEST",
			"UserDisplayName": "LÖSCHTEST"
		}, {
			"__metadata": {
				"id": "https://webidetesting5081015-a79086271.dispatcher.hana.ondemand.com/sap/opu/odata/sap/Z_PLM_PHASE_OUT_SRV_01/PhaseOutManagerValueHelpEntitySet('TKUMMETZ')",
				"uri": "https://webidetesting5081015-a79086271.dispatcher.hana.ondemand.com/sap/opu/odata/sap/Z_PLM_PHASE_OUT_SRV_01/PhaseOutManagerValueHelpEntitySet('TKUMMETZ')",
				"type": "phaseout.PhaseOutManagerValueHelpEntity"
			},
			"UserKey": "TKUMMETZ",
			"UserDisplayName": "TORSTEN KUMMETZ"
		}]
	}
}